Gene Expression Note 2
…
# All available tables
names(clinical.BCRtab.STAD)

## [1] "clinical_patient_stad"        "clinical_nte_stad"           
## [3] "clinical_omf_v4.0_stad"       "clinical_radiation_stad"     
## [5] "clinical_drug_stad"           "clinical_follow_up_v1.0_stad"

# colnames from clinical_patient_stad
tibble::tibble(sort(colnames(clinical.BCRtab.STAD$clinical_patient_stad)))

## # A tibble: 63 × 1
##    `sort(colnames(clinical.BCRtab.STAD$clinical_patient_stad))`
##    <chr>                                                       
##  1 age_at_initial_pathologic_diagnosis                         
##  2 ajcc_metastasis_pathologic_pm                               
##  3 ajcc_nodes_pathologic_pn                                    
##  4 ajcc_pathologic_tumor_stage                                 
##  5 ajcc_staging_edition                                        
##  6 ajcc_tumor_pathologic_pt                                    
##  7 anatomic_neoplasm_subdivision                               
##  8 anatomic_neoplasm_subdivision_other                         
##  9 antireflux_treatment                                        
## 10 antireflux_treatment_type                                   
## # … with 53 more rows
…
